 #m0 (GeV)  m12 (GeV)   exp_2s_low (lp)   exp_1s_low (lp)          exp (lp)  exp_1s_high (lp)  exp_2s_high (lp)               obs
      2790        500          0.074515          0.090014          0.113163          0.143759          0.179529          0.097464
      2570        700          0.033630          0.041154          0.052267          0.067373          0.084956          0.044817
      2670        700          0.038585          0.047094          0.059684          0.076566          0.096529          0.051214
      2770        700          0.045138          0.054746          0.069492          0.089148          0.111921          0.059767
      2850        920          0.040596          0.049632          0.063393          0.082107          0.104370          0.054888
      2880        700          0.052462          0.063632          0.080771          0.103871          0.130699          0.069620
      2950        920          0.046862          0.057287          0.073176          0.094776          0.119999          0.063353
      2980        700          0.061643          0.074844          0.094469          0.120898          0.151433          0.081127
      1810        930          0.009449          0.011615          0.014899          0.019525          0.025036          0.012939
      1910        930          0.010987          0.013503          0.017322          0.022647          0.028992          0.015036
      2020        930          0.012708          0.015619          0.020034          0.026194          0.033533          0.017367
      2120        930          0.014762          0.018145          0.023272          0.030428          0.038810          0.020138
      2180       1150          0.017583          0.021402          0.027068          0.034725          0.043412          0.022755
      2230        930          0.017496          0.021449          0.027451          0.035893          0.045780          0.023797
      2290       1150          0.020414          0.024789          0.031290          0.039944          0.050020          0.026362
      2330        930          0.019600          0.024023          0.030750          0.040203          0.051277          0.026715
      2390       1150          0.023314          0.028306          0.035726          0.045611          0.057241          0.030003
      2440        920          0.023251          0.028496          0.036475          0.047690          0.060825          0.031773
      2500       1150          0.027089          0.032887          0.041514          0.052996          0.066224          0.034944
      2540        930          0.026524          0.032506          0.041608          0.054277          0.069107          0.036076
      2600       1150          0.031047          0.037600          0.047362          0.060466          0.075720          0.039943
      2640        930          0.030140          0.036944          0.047289          0.061541          0.078364          0.040934
      2670       1370          0.039723          0.046370          0.056623          0.070134          0.085529          0.047400
      2710       1150          0.035711          0.043253          0.054480          0.069554          0.087099          0.045967
      2770       1370          0.044667          0.052559          0.063921          0.079171          0.096427          0.053508
      2810       1150          0.040369          0.048885          0.061580          0.078612          0.098231          0.051876
      2880       1370          0.051375          0.059973          0.073224          0.090700          0.110322          0.061511
      2920       1140          0.046946          0.057058          0.071623          0.091434          0.114004          0.060371
      1380        930          0.006205          0.007515          0.009466          0.012084          0.015100          0.008489
      1490        930          0.006187          0.007583          0.009707          0.012692          0.016248          0.008490
      1590        940          0.006900          0.008480          0.010877          0.014222          0.018240          0.009479
      1640       1160          0.008246          0.010003          0.012697          0.016288          0.020492          0.010660
      1700        930          0.008069          0.009898          0.012720          0.016632          0.021370          0.011063
      1750       1160          0.009660          0.011715          0.014872          0.019079          0.023952          0.012468
      1860       1160          0.011500          0.014000          0.017705          0.022714          0.028456          0.014855
      1910       1370          0.014707          0.017284          0.020882          0.026032          0.031892          0.017557
      1970       1150          0.013239          0.016088          0.020384          0.026150          0.032830          0.017124
      2020       1370          0.017025          0.019917          0.024366          0.030179          0.036757          0.020292
      2080       1150          0.015427          0.018781          0.023751          0.030471          0.038255          0.020002
      2130       1370          0.019955          0.023342          0.028555          0.035369          0.043077          0.023811
      2240       1370          0.022972          0.026956          0.032877          0.040720          0.049597          0.027408
      2280       1600          0.024415          0.028501          0.034799          0.043047          0.052406          0.029503
      2340       1380          0.026483          0.030917          0.037750          0.046757          0.056950          0.031649
      2390       1600          0.028258          0.033108          0.040118          0.049562          0.060310          0.033848
      2450       1370          0.029828          0.034995          0.042688          0.052939          0.064837          0.035653
      2500       1600          0.032958          0.038394          0.046791          0.057806          0.070709          0.039431
      2550       1810          0.035466          0.041646          0.050554          0.062453          0.076296          0.042989
      2560       1370          0.034565          0.040555          0.049466          0.061348          0.074752          0.041277
      2610       1590          0.037722          0.044071          0.053553          0.066245          0.080858          0.045106
      2660       1810          0.040397          0.047339          0.057358          0.070950          0.086375          0.048997
      2720       1590          0.042824          0.050033          0.060803          0.075114          0.091761          0.051162
      2770       1810          0.045943          0.053524          0.065228          0.080686          0.098739          0.055310
      2830       1590          0.048896          0.057417          0.069693          0.086098          0.105182          0.058843
      1260        940          0.006052          0.007147          0.008767          0.010901          0.013328          0.008292
      1300       1160          0.006269          0.007496          0.009234          0.011512          0.014103          0.008070
      1410       1160          0.006079          0.007382          0.009317          0.011924          0.014936          0.007839
      1530       1160          0.007077          0.008584          0.010896          0.013978          0.017548          0.009138
      1560       1380          0.008797          0.010320          0.012587          0.015611          0.019119          0.010507
      1680       1380          0.010675          0.012461          0.015217          0.018872          0.022995          0.012740
      1790       1380          0.012474          0.014636          0.017851          0.022139          0.026976          0.014881
      1830       1600          0.013450          0.015793          0.019171          0.023684          0.028971          0.016180
      1950       1590          0.015805          0.018560          0.022529          0.027832          0.034044          0.019000
      2060       1600          0.018575          0.021638          0.026372          0.032623          0.039870          0.022283
      2100       1810          0.019605          0.022972          0.027833          0.034428          0.042023          0.023778
      2170       1600          0.021356          0.025025          0.030322          0.037508          0.045782          0.025579
      2210       1820          0.022755          0.026642          0.032436          0.040073          0.048954          0.027738
      2330       1810          0.026850          0.031463          0.038124          0.047156          0.057558          0.032429
      2360       2040          0.028276          0.032941          0.040144          0.049660          0.060456          0.034677
      2440       1810          0.030554          0.035694          0.043375          0.053656          0.065576          0.037144
      2480       2030          0.032956          0.038505          0.046791          0.057878          0.070827          0.040474
      2590       2040          0.038059          0.044593          0.054034          0.066838          0.081368          0.046490
      2630       2250          0.044401          0.051917          0.062793          0.077168          0.093600          0.062552
      2710       2030          0.044152          0.051733          0.062683          0.077538          0.094394          0.054121
      1180       1160          0.005768          0.006788          0.008255          0.010171          0.012316          0.007771
      1330       1380          0.006344          0.007434          0.009008          0.011157          0.013624          0.007566
      1450       1380          0.007444          0.008689          0.010610          0.013141          0.016026          0.008851
      1590       1600          0.009338          0.010942          0.013258          0.016399          0.019964          0.011239
      1710       1600          0.011203          0.013088          0.015905          0.019674          0.024013          0.013463
      1740       1820          0.011735          0.013760          0.016596          0.020635          0.025228          0.014335
      1860       1820          0.014133          0.016562          0.020068          0.024824          0.030221          0.017156
      1980       1820          0.016649          0.019508          0.023637          0.029238          0.035687          0.020227
      2010       2040          0.017838          0.020901          0.025324          0.031081          0.038237          0.022013
      2130       2040          0.020781          0.024348          0.029502          0.036495          0.044428          0.025612
      2160       2250          0.023810          0.027880          0.033674          0.041383          0.050327          0.033692
      2250       2030          0.024586          0.028810          0.034911          0.043184          0.052571          0.030249
      2280       2250          0.028260          0.032975          0.039813          0.048861          0.059313          0.040184
      2400       2250          0.033359          0.038869          0.046631          0.057832          0.070195          0.047003
      2430       2470          0.035964          0.042354          0.051262          0.062911          0.076060          0.061649
      2520       2250          0.038854          0.045207          0.054730          0.067348          0.081727          0.054650
      2550       2470          0.041863          0.049051          0.059430          0.072939          0.088304          0.071321
       930       1160          0.003478          0.004084          0.004957          0.006100          0.007393          0.005013
      1060       1160          0.004632          0.005439          0.006602          0.008124          0.009845          0.006499
      1200       1380          0.005989          0.007003          0.008470          0.010395          0.012601          0.007372
      1340       1610          0.006100          0.007163          0.008695          0.010741          0.013071          0.007383
      1470       1600          0.007654          0.008969          0.010868          0.013443          0.016366          0.009205
      1490       1820          0.007784          0.009095          0.011051          0.013671          0.016730          0.009548
      1620       1820          0.009658          0.011309          0.013767          0.017009          0.020805          0.011807
      1630       2040          0.009682          0.011345          0.013747          0.017005          0.020809          0.011947
      1760       2040          0.012042          0.014028          0.017096          0.021149          0.025881          0.014900
      1890       2040          0.014913          0.017513          0.021259          0.026296          0.032096          0.018488
      1910       2260          0.016587          0.019394          0.023458          0.028827          0.035058          0.023378
      2030       2260          0.019796          0.023147          0.027996          0.034403          0.041558          0.027985
      2050       2480          0.021317          0.025050          0.030264          0.037093          0.044821          0.036098
      2180       2470          0.025488          0.029952          0.036187          0.044413          0.053696          0.043647
      2200       2690          0.025715          0.030329          0.036952          0.045589          0.055449          0.046392
      2300       2480          0.030231          0.035420          0.042921          0.052603          0.063652          0.051308
      2330       2690          0.030948          0.036499          0.044466          0.054861          0.066727          0.055837
      2450       2690          0.036459          0.042996          0.052382          0.064629          0.078607          0.065761
       790       1170          0.002501          0.002937          0.003565          0.004387          0.005317          0.003730
      1070       1390          0.005322          0.006202          0.007440          0.009009          0.010781          0.006967
      1210       1610          0.004935          0.005749          0.007006          0.008667          0.010606          0.005983
      1350       1830          0.006054          0.007094          0.008596          0.010632          0.012944          0.007418
      1500       2040          0.007776          0.009131          0.011084          0.013693          0.016772          0.009684
      1640       2260          0.010811          0.012625          0.015171          0.018792          0.022678          0.015293
      1780       2260          0.013444          0.015807          0.019011          0.023455          0.028528          0.019115
      1790       2480          0.014194          0.016633          0.020152          0.024700          0.029847          0.024206
      1920       2480          0.017494          0.020500          0.024838          0.030444          0.036787          0.029884
      1930       2700          0.017377          0.020494          0.024969          0.030765          0.037451          0.031352
      2070       2690          0.021182          0.024981          0.030435          0.037549          0.045670          0.038302
       930       1390          0.003790          0.004416          0.005298          0.006415          0.007655          0.005233
      1070       1610          0.004447          0.005189          0.006265          0.007688          0.009308          0.005554
      1210       1830          0.004626          0.005421          0.006569          0.008125          0.009892          0.005686
      1360       2040          0.005990          0.006999          0.008504          0.010437          0.012874          0.007446
      1500       2260          0.008389          0.009810          0.011864          0.014581          0.017709          0.012012
      1650       2480          0.011279          0.013254          0.016014          0.019653          0.023729          0.019233
      1790       2700          0.013923          0.016419          0.020004          0.024681          0.029939          0.025186
       640       1170          0.002321          0.002716          0.003270          0.003975          0.004760          0.003978
       780       1390          0.002609          0.003047          0.003662          0.004440          0.005309          0.003722
       920       1610          0.003528          0.004111          0.004932          0.005973          0.007147          0.004655
      1070       1830          0.003585          0.004197          0.005110          0.006321          0.007735          0.004430
      1210       2050          0.004535          0.005314          0.006439          0.007965          0.009747          0.005635
      1350       2480          0.007053          0.008288          0.010014          0.012273          0.014850          0.012046
      1360       2260          0.006526          0.007631          0.009229          0.011341          0.013719          0.009297
      1490       2700          0.008853          0.010419          0.012671          0.015633          0.019014          0.015916
      1500       2480          0.008710          0.010235          0.012366          0.015156          0.018339          0.014880
      1650       2700          0.011108          0.013100          0.015961          0.019692          0.023888          0.020020
       760       1610          0.002795          0.003263          0.003921          0.004762          0.005689          0.003882
       910       1830          0.003406          0.003963          0.004799          0.005889          0.007120          0.004330
      1050       2050          0.003662          0.004279          0.005200          0.006432          0.007830          0.004576
      1200       2270          0.005147          0.006018          0.007279          0.008945          0.010878          0.007352
      1330       2700          0.007649          0.009001          0.010945          0.013504          0.016403          0.013788
      1480       2920          0.009685          0.011422          0.013916          0.017213          0.020955          0.017845
       470       1170          0.002142          0.002488          0.002961          0.003556          0.004199          0.003880
       620       1390          0.002084          0.002441          0.002925          0.003561          0.004261          0.003072
       880       2050          0.003322          0.003893          0.004717          0.005835          0.007140          0.004182
      1030       2270          0.004481          0.005240          0.006338          0.007798          0.009451          0.006370
      1160       2700          0.006702          0.007904          0.009629          0.011865          0.014405          0.012156
      1180       2490          0.006091          0.007157          0.008648          0.010585          0.012801          0.010386
      1310       2920          0.008504          0.010030          0.012219          0.015115          0.018401          0.015658
       570       1610          0.002355          0.002758          0.003305          0.004024          0.004814          0.003354
       730       1830          0.003267          0.003807          0.004567          0.005538          0.006622          0.004373
       840       2270          0.004002          0.004680          0.005660          0.006965          0.008463          0.005785
      1000       2490          0.005381          0.006292          0.007611          0.009328          0.011272          0.009187
      1120       2920          0.007646          0.009016          0.010985          0.013588          0.016542          0.014076
       410       1390          0.002163          0.002516          0.003013          0.003638          0.004322          0.003221
       680       2050          0.003526          0.004103          0.004967          0.006080          0.007353          0.004596
       790       2490          0.004841          0.005660          0.006846          0.008380          0.010134          0.008186
       950       2710          0.005985          0.007044          0.008565          0.010540          0.012807          0.010767
      1080       3140          0.008613          0.010158          0.012375          0.015328          0.018693          0.015866
       510       1830          0.002814          0.003286          0.003949          0.004795          0.005729          0.003921
       640       2260          0.003683          0.004309          0.005188          0.006401          0.007764          0.005358
       910       2920          0.006812          0.008034          0.009788          0.012108          0.014721          0.012561
