616.21232404 250.0
639.529476389 300.0
650.0 320.553097534
668.27548501 350.0
700.0 392.606941084
706.388381828 400.0
750.0 447.495827841
752.968873606 450.0
800.0 497.020664302
812.006078158 500.0
850.0 510.161579449
859.845535761 500.0
900.0 471.274990999
924.057248303 450.0
950.0 432.471078409
1000.0 414.006288133
1050.0 411.495810971
1100.0 430.98996826
1141.62274456 450.0
1150.0 455.173930114
1200.0 485.324853791
1233.25380264 500.0
1250.0 513.92383232
1296.45398314 550.0
1300.0 556.818073677
1334.15935418 600.0
1350.0 643.330481145
1400.0 640.89055225
1445.02213064 650.0
1450.0 651.033166311
1500.0 656.137883065
1549.04861905 700.0
1550.0 700.539173648
1594.6780205 750.0
1600.0 758.931824145
1618.69757936 800.0
1632.41837587 850.0
1639.82982586 900.0
1644.72175642 950.0
1643.21022423 1000.0
1635.7060125 1050.0
1624.62020651 1100.0
1612.19522304 1150.0
1600.0 1194.26336189
1598.33656618 1200.0
1580.28421506 1250.0
1562.98211194 1300.0
1550.0 1346.94771774
1549.13999196 1350.0
1540.1840816 1400.0
1535.65754815 1450.0
1533.69162209 1500.0
1533.07066674 1550.0
1532.59929139 1600.0
1531.96765675 1650.0
1532.05370269 1700.0
1532.86974258 1750.0
1533.89259606 1800.0
1535.70641088 1850.0
1541.33670033 1900.0
1544.22796774 1950.0
1543.81724287 2000.0
1532.6653573 2050.0
1509.03334605 2100.0
1500.0 2114.91361381
1479.79102811 2150.0
1450.36953017 2200.0
1450.0 2200.65412056
1422.94756478 2250.0
1400.0 2288.99638542
1392.51982477 2300.0
1352.49726012 2350.0
1350.0 2352.84865815
1301.10456142 2400.0
1300.0 2401.11257353
1250.0 2440.52393287
1233.93622285 2450.0
1200.0 2474.55464678
1161.19817309 2500.0
1150.0 2509.35939594
1100.0 2547.714426
1096.62923189 2550.0
1050.0 2584.6251966
1029.05593059 2600.0
1000.0 2624.01760449
967.431706639 2650.0
950.0 2663.17033488
900.0 2691.97762421
866.974974726 2700.0
850.0 2706.36915737
