  80  260 0.001906
 190  700 0.001913
 220  490 0.001568
 240  260 0.003557
 320  940 0.002055
 360  250 0.005437
 370  710 0.001810
 380  480 0.003460
 400 1390 0.003484
 470  250 0.005901
 470 1160 0.003364
 500  940 0.002761
 510  480 0.003999
 510 1830 0.004570
 520  710 0.003291
 570 1610 0.003834
 580  250 0.006705
 610 1390 0.003348
 620  490 0.005285
 640 1160 0.003733
 640 2250 0.005903
 650  710 0.005094
 650  940 0.004440
 680  250 0.009149
 680 2050 0.005681
 730  490 0.006959
 730 1830 0.005204
 760 1610 0.004471
 770  710 0.006646
 780  250 0.012053
 780 2680 0.008979
 790  930 0.005153
 790 1160 0.004069
 790 1380 0.004230
 800 2480 0.007837
 840  480 0.008303
 850 2260 0.006422
 890  710 0.006709
 890 2040 0.005343
 910  940 0.005144
 920 1820 0.005422
 930 1160 0.005576
 930 1380 0.005904
 930 1600 0.005614
 930 2910 0.011554
 950  480 0.008034
 980 2690 0.009973
 990  250 0.015508
1000  710 0.006508
1010 2480 0.008689
1030  940 0.006454
1040 2260 0.007141
1060  480 0.008148
1060 1160 0.007331
1060 3340 0.017515
1070 1380 0.008171
1070 1820 0.005673
1080 1600 0.007094
1090  250 0.018335
1110  710 0.007876
1110 3120 0.014625
1140 2910 0.012937
1150  930 0.007991
1160  480 0.009814
1170 2690 0.011143
1180 1160 0.009059
1190  250 0.022250
1190 2480 0.009831
1200 1380 0.009238
1210 1600 0.007695
1210 2260 0.008185
1220  700 0.009441
1220 2040 0.007272
1260  930 0.009533
1290  250 0.027001
1300 1150 0.010115
1300 3120 0.016457
1320 2910 0.014253
1330  700 0.011053
1330 1370 0.009761
1340 1600 0.009466
1340 2690 0.012603
1360 1820 0.009601
1360 2040 0.009370
1360 2260 0.010200
1360 2470 0.011358
1370  480 0.014185
1370  930 0.010342
1400  250 0.033210
1410 1160 0.010375
1430  710 0.011884
1450 1370 0.011383
1460 3340 0.021781
1470  480 0.015637
1470 1600 0.011760
1480  930 0.010823
1480 3120 0.018393
1490 1820 0.012042
1500 2040 0.012138
1500 2690 0.014602
1500 2900 0.016173
1510 2250 0.013257
1510 2470 0.014032
1530 1150 0.012053
1540  700 0.012650
1560 1380 0.013458
1580 3970 0.033765
1590  930 0.012215
1590 1600 0.014241
1600  250 0.047048
1600 3760 0.030446
1620 1810 0.014888
1620 3550 0.027730
1630 2040 0.014977
1640  700 0.014197
1640 1150 0.014008
1640 3330 0.024249
1650 2250 0.016995
1650 2470 0.017791
1650 3120 0.020573
1660 2680 0.018316
1660 2900 0.019094
1680  470 0.019882
1680 1370 0.016162
1700  930 0.014235
1710 1600 0.016992
1740 1820 0.017974
1750  700 0.016880
1750 1150 0.016289
1760 2040 0.018526
1780 2250 0.020747
1780 3760 0.033795
1790 1380 0.018845
1790 2470 0.022264
1790 3550 0.030753
1800 2690 0.022933
1800 3120 0.024158
1800 3330 0.027187
1810  920 0.016620
1810 2900 0.023200
1830 1600 0.020356
1850  700 0.019292
1860 1150 0.019285
1860 1820 0.021460
1880  480 0.027586
1890 2030 0.022858
1910  930 0.019276
1910 1370 0.022047
1910 2250 0.025373
1930 2470 0.027775
1940 2680 0.028435
1950  700 0.022185
1950 1590 0.023783
1950 2900 0.028967
1950 3120 0.029608
1950 3330 0.032276
1950 3540 0.034230
1970 1150 0.022159
1980  480 0.032396
1980 1810 0.025157
2010 2030 0.027135
2020  920 0.022166
2020 1370 0.025458
2040 2250 0.030576
2060 1590 0.027676
2060 2460 0.033611
2080  480 0.037860
2080 1150 0.025685
2080 2680 0.034560
2100 1810 0.029489
2100 3110 0.036482
2100 3330 0.039046
2120  930 0.025674
2130 1370 0.029738
2130 2030 0.031485
2160  700 0.030191
2160 2250 0.036106
2170 1590 0.031721
2180 1150 0.029227
2190  470 0.045320
2210 1810 0.034147
2210 2680 0.041737
2220 2900 0.042834
2230  920 0.030164
2240 1370 0.034100
2240 3110 0.044728
2250 2030 0.037127
2260  700 0.035307
2280 1590 0.036289
2280 2250 0.042500
2290 1150 0.033597
2310 2460 0.047224
2330  920 0.033735
2330 1810 0.040033
2330 2680 0.049314
2340 1370 0.039006
2350 2900 0.051115
2360  700 0.040991
2370 2020 0.042935
2390 1150 0.038320
2390 1590 0.041564
2400 2250 0.049905
2430 2460 0.055426
2440  920 0.040030
2440 1810 0.045358
2450 1370 0.044118
2460 2680 0.058615
2470  700 0.047818
2480 2030 0.049266
2490  470 0.072803
2500 1150 0.044277
2500 1590 0.048415
2520 2240 0.057928
2540  920 0.045558
2550 1810 0.052697
2550 2460 0.064251
2560 1370 0.050973
2570  700 0.056221
2590 2030 0.056679
2600 1150 0.050457
2610 1590 0.055371
2630 2250 0.066273
2640  920 0.051714
2660 1370 0.057592
2660 1810 0.059699
2670  700 0.063799
2710 1140 0.058011
2720 1590 0.062689
2770 1370 0.065590
2770 1810 0.067641
2810 1150 0.065541
2830 1580 0.071537
2850  920 0.068807
2870  700 0.085534
2880 1360 0.074959
2920 1140 0.076138
