 #m0 (GeV)  m12 (GeV)   exp_2s_low (lp)   exp_1s_low (lp)          exp (lp)  exp_1s_high (lp)  exp_2s_high (lp)               obs
       120        260          0.001694          0.001974          0.002368          0.002848          0.003360          0.002063
       190        710          0.001220          0.001424          0.001712          0.002039          0.002379          0.002156
       240        490          0.001147          0.001341          0.001597          0.001892          0.002199          0.001539
       260        250          0.002676          0.003126          0.003740          0.004455          0.005199          0.003411
       330        940          0.001295          0.001504          0.001790          0.002150          0.002542          0.002499
       370        250          0.003957          0.004651          0.005511          0.006489          0.007512          0.006058
       370        720          0.001153          0.001335          0.001593          0.001914          0.002266          0.002199
       390        480          0.002328          0.002694          0.003229          0.003911          0.004625          0.004409
       410       1390          0.002133          0.002488          0.002971          0.003593          0.004278          0.003187
       470       1170          0.002129          0.002466          0.002943          0.003525          0.004168          0.003856
       480        250          0.004169          0.004828          0.005762          0.006958          0.008291          0.008023
       510        490          0.002632          0.003049          0.003638          0.004370          0.005175          0.005051
       510        940          0.001817          0.002110          0.002511          0.003016          0.003560          0.003468
       510       1830          0.002758          0.003221          0.003871          0.004694          0.005612          0.003844
       520        720          0.002116          0.002457          0.002925          0.003518          0.004163          0.004086
       570       1610          0.002317          0.002705          0.003251          0.003959          0.004736          0.003298
       580        250          0.004650          0.005386          0.006427          0.007719          0.009142          0.008895
       620       1390          0.002058          0.002410          0.002888          0.003516          0.004206          0.003035
       630        480          0.003668          0.004259          0.005070          0.006089          0.007211          0.007048
       640       1170          0.002300          0.002691          0.003240          0.003945          0.004719          0.003953
       640       2260          0.003569          0.004173          0.005047          0.006202          0.007523          0.005210
       650        710          0.003340          0.003879          0.004617          0.005545          0.006567          0.006354
       660        940          0.002928          0.003407          0.004062          0.004892          0.005803          0.005540
       680       2050          0.003430          0.004013          0.004832          0.005922          0.007156          0.004484
       690        250          0.006561          0.007634          0.009102          0.010932          0.012946          0.012699
       730       1830          0.003193          0.003721          0.004464          0.005413          0.006472          0.004284
       740        480          0.004858          0.005626          0.006714          0.008064          0.009550          0.009248
       760       1610          0.002750          0.003211          0.003859          0.004679          0.005594          0.003819
       770        710          0.004331          0.005047          0.006055          0.007312          0.008686          0.008157
       780       1390          0.002573          0.003005          0.003611          0.004385          0.005239          0.003672
       790        250          0.008553          0.009973          0.011911          0.014365          0.017077          0.016157
       790        940          0.003137          0.003699          0.004507          0.005560          0.006763          0.005294
       790       1170          0.002474          0.002906          0.003527          0.004340          0.005260          0.003692
       790       2490          0.004665          0.005455          0.006597          0.008086          0.009771          0.007931
       840       2270          0.003875          0.004531          0.005481          0.006744          0.008195          0.005622
       850        480          0.005696          0.006651          0.007993          0.009693          0.011556          0.010582
       880       2050          0.003216          0.003776          0.004584          0.005670          0.006938          0.004068
       890        250          0.009898          0.011606          0.013997          0.017087          0.020526          0.018035
       890        710          0.004211          0.004967          0.006051          0.007485          0.009113          0.006907
       910        940          0.003171          0.003739          0.004556          0.005636          0.006879          0.004702
       910       1830          0.003311          0.003867          0.004683          0.005732          0.006951          0.004231
       910       2920          0.006520          0.007690          0.009368          0.011588          0.014108          0.012053
       920       1610          0.003461          0.004032          0.004838          0.005866          0.007014          0.004571
       930       1160          0.003435          0.004034          0.004897          0.006026          0.007302          0.004958
       930       1390          0.003728          0.004345          0.005212          0.006320          0.007546          0.005156
       950        490          0.005204          0.006138          0.007478          0.009250          0.011276          0.008391
       950       2710          0.005752          0.006769          0.008233          0.010130          0.012310          0.010378
       990        250          0.010217          0.012049          0.014680          0.018112          0.022058          0.016288
      1000        710          0.004130          0.004871          0.005934          0.007351          0.008964          0.006122
      1000       2490          0.005169          0.006073          0.007338          0.008994          0.010883          0.008862
      1030        940          0.004021          0.004742          0.005777          0.007147          0.008723          0.005849
      1030       2270          0.004344          0.005078          0.006142          0.007558          0.009184          0.006202
      1050       2050          0.003557          0.004168          0.005049          0.006254          0.007627          0.004462
      1060        480          0.005329          0.006286          0.007658          0.009485          0.011567          0.007902
      1060       1160          0.004570          0.005367          0.006514          0.008016          0.009714          0.006424
      1070       1390          0.005228          0.006092          0.007309          0.008851          0.010591          0.006852
      1070       1610          0.004341          0.005051          0.006115          0.007515          0.009090          0.005439
      1070       1830          0.003490          0.004099          0.004975          0.006154          0.007512          0.004317
      1080       3140          0.008202          0.009674          0.011786          0.014598          0.017802          0.015129
      1090        250          0.012130          0.014305          0.017429          0.021559          0.026280          0.018280
      1110        710          0.005049          0.005955          0.007255          0.008975          0.010954          0.007272
      1120       2920          0.007313          0.008625          0.010508          0.012998          0.015824          0.013480
      1150        940          0.005024          0.005924          0.007218          0.008929          0.010884          0.007085
      1160        480          0.006456          0.007614          0.009276          0.011474          0.014005          0.009347
      1160       2700          0.006440          0.007595          0.009253          0.011402          0.013861          0.011699
      1180       1160          0.005684          0.006689          0.008134          0.010009          0.012130          0.007652
      1180       2490          0.005872          0.006900          0.008336          0.010218          0.012363          0.010038
      1200       1380          0.005863          0.006856          0.008292          0.010177          0.012337          0.007224
      1200       2270          0.004985          0.005829          0.007050          0.008664          0.010523          0.007138
      1210       1610          0.004821          0.005649          0.006845          0.008467          0.010335          0.005859
      1210       1830          0.004486          0.005267          0.006393          0.007909          0.009678          0.005547
      1210       2050          0.004393          0.005158          0.006261          0.007674          0.009474          0.005499
      1220        710          0.006103          0.007198          0.008769          0.010847          0.013223          0.008563
      1260        940          0.005936          0.007048          0.008635          0.010736          0.013126          0.008165
      1270        480          0.007929          0.009351          0.011393          0.014093          0.017179          0.011149
      1300        250          0.018252          0.021526          0.026226          0.032356          0.039355          0.026148
      1300       1160          0.006163          0.007357          0.009077          0.011316          0.013863          0.007927
      1310       2920          0.008146          0.009607          0.011705          0.014478          0.017626          0.015001
      1330        710          0.007048          0.008342          0.010251          0.012746          0.015583          0.009654
      1330       1380          0.006191          0.007270          0.008824          0.010916          0.013358          0.007407
      1330       2700          0.007316          0.008629          0.010513          0.012970          0.015755          0.013274
      1340       1610          0.005940          0.006975          0.008467          0.010474          0.012817          0.007210
      1350       1830          0.005894          0.006885          0.008367          0.010351          0.012650          0.007228
      1350       2480          0.006797          0.007988          0.009651          0.011829          0.014332          0.011653
      1360       2040          0.005791          0.006800          0.008254          0.010210          0.012494          0.007229
      1360       2260          0.006316          0.007384          0.008932          0.010976          0.013349          0.008980
      1370        480          0.009261          0.010995          0.013469          0.016748          0.020476          0.012642
      1380        930          0.006064          0.007361          0.009292          0.011863          0.014855          0.008338
      1400        250          0.021524          0.025497          0.031179          0.038568          0.047075          0.029942
      1410       1160          0.005943          0.007235          0.009151          0.011682          0.014661          0.007693
      1430        710          0.006976          0.008492          0.010740          0.013778          0.017225          0.009602
      1450       1380          0.007254          0.008510          0.010380          0.012856          0.015679          0.008674
      1470        480          0.009627          0.011601          0.014555          0.018490          0.022886          0.013009
      1470       1600          0.007438          0.008735          0.010604          0.013117          0.016051          0.008998
      1480       2920          0.009273          0.010936          0.013323          0.016481          0.020116          0.017105
      1490        930          0.006035          0.007417          0.009514          0.012440          0.015925          0.008324
      1490       1820          0.007538          0.008852          0.010745          0.013291          0.016265          0.009289
      1490       2700          0.008476          0.009996          0.012178          0.015025          0.018275          0.015338
      1500       2040          0.007534          0.008846          0.010739          0.013284          0.016255          0.009425
      1500       2260          0.008115          0.009489          0.011477          0.014105          0.017107          0.011643
      1500       2480          0.008365          0.009851          0.011922          0.014613          0.017682          0.014416
      1530       1160          0.006922          0.008426          0.010658          0.013672          0.017165          0.008953
      1540        710          0.007170          0.008788          0.011248          0.014672          0.018682          0.009827
      1560       1380          0.008602          0.010102          0.012262          0.015227          0.018632          0.010265
      1580        480          0.010312          0.012618          0.016024          0.020656          0.026047          0.014031
      1590        940          0.006753          0.008300          0.010647          0.013953          0.017892          0.009296
      1590       1600          0.009064          0.010644          0.012920          0.015962          0.019524          0.010971
      1620       1820          0.009399          0.011011          0.013343          0.016505          0.020145          0.011476
      1630       2040          0.009355          0.010986          0.013336          0.016497          0.020135          0.011603
      1640        710          0.008038          0.009853          0.012611          0.016489          0.021108          0.010965
      1640       1160          0.008057          0.009807          0.012404          0.015952          0.020072          0.010434
      1640       2260          0.010449          0.012217          0.014777          0.018160          0.022086          0.014810
      1650       2480          0.010879          0.012785          0.015448          0.018933          0.022909          0.018563
      1650       2700          0.010659          0.012572          0.015317          0.018873          0.022975          0.019268
      1680        480          0.011723          0.014347          0.018219          0.023598          0.029700          0.015827
      1680       1380          0.010378          0.012212          0.014851          0.018395          0.022520          0.012434
      1700        930          0.007892          0.009700          0.012443          0.016307          0.020909          0.010834
      1710       1600          0.010853          0.012706          0.015469          0.019134          0.023354          0.013103
      1740       1820          0.011382          0.013281          0.016035          0.020041          0.024507          0.013919
      1750        700          0.009563          0.011752          0.015075          0.019710          0.025139          0.013047
      1750       1160          0.009421          0.011469          0.014506          0.018608          0.023362          0.012185
      1760       2040          0.011608          0.013630          0.016546          0.020467          0.025046          0.014428
      1780        480          0.014322          0.017417          0.022154          0.028490          0.035848          0.019190
      1780       2260          0.013035          0.015240          0.018434          0.022683          0.027563          0.018499
      1790       1380          0.012172          0.014250          0.017349          0.021545          0.026229          0.014503
      1790       2480          0.013673          0.016023          0.019413          0.023794          0.028791          0.023339
      1790       2700          0.013327          0.015718          0.019149          0.023658          0.028749          0.024192
      1810        930          0.009226          0.011339          0.014544          0.019103          0.024444          0.012653
      1830       1600          0.013070          0.015303          0.018631          0.023046          0.028165          0.015769
      1850        710          0.011002          0.013485          0.017260          0.022568          0.028675          0.014883
      1860       1160          0.011225          0.013665          0.017284          0.022173          0.027837          0.014522
      1860       1820          0.013664          0.016044          0.019475          0.024091          0.029329          0.016677
      1880        480          0.016339          0.019994          0.025393          0.032732          0.041106          0.021798
      1890       2040          0.014422          0.016827          0.020316          0.025391          0.031051          0.017887
      1910        930          0.010747          0.013210          0.016944          0.022153          0.028359          0.014708
      1910       1370          0.014280          0.016754          0.020436          0.025312          0.030988          0.017094
      1910       2260          0.016020          0.018731          0.022656          0.027842          0.033860          0.022635
      1920       2480          0.016867          0.019763          0.023947          0.029389          0.035531          0.028803
      1930       2700          0.016683          0.019677          0.023972          0.029576          0.035927          0.030124
      1950       1590          0.015393          0.018036          0.021855          0.027034          0.033039          0.018494
      1960        700          0.012858          0.015731          0.020173          0.026316          0.033505          0.017448
      1970       1150          0.012912          0.015718          0.019881          0.025504          0.032019          0.016723
      1980        480          0.019255          0.023562          0.029921          0.038478          0.048416          0.025563
      1980       1820          0.016127          0.018897          0.022897          0.028324          0.034661          0.019613
      2010       2040          0.017267          0.020204          0.024515          0.030324          0.037109          0.021352
      2020        930          0.012388          0.015226          0.019529          0.025534          0.032688          0.016961
      2020       1370          0.016559          0.019486          0.023698          0.029314          0.035919          0.019760
      2030       2260          0.019107          0.022341          0.027021          0.033206          0.040331          0.027087
      2050       2480          0.020515          0.024107          0.029128          0.035700          0.043197          0.034887
      2060        700          0.015080          0.018483          0.023657          0.030787          0.039203          0.020487
      2060       1600          0.018010          0.021102          0.025567          0.031670          0.038720          0.021717
      2070       2690          0.020312          0.023953          0.029184          0.036006          0.043794          0.036761
      2080       1150          0.015021          0.018285          0.023125          0.029668          0.037246          0.019490
      2100       1810          0.018882          0.022169          0.026914          0.033291          0.040738          0.023033
      2120        930          0.014398          0.017696          0.022699          0.029677          0.037923          0.019675
      2130       1370          0.019442          0.022828          0.027710          0.034367          0.042090          0.023187
      2130       2040          0.020067          0.023517          0.028494          0.035246          0.043131          0.024799
      2160        700          0.017333          0.021244          0.027194          0.035390          0.044978          0.023435
      2160       2250          0.023000          0.026891          0.032524          0.039968          0.048543          0.032677
      2170       1600          0.020631          0.024224          0.029405          0.036375          0.044399          0.024867
      2180       1150          0.017109          0.020829          0.026344          0.033715          0.042228          0.022140
      2180       2470          0.024418          0.028755          0.034805          0.042714          0.051711          0.041835
      2190        470          0.027404          0.033235          0.042190          0.054123          0.067950          0.036293
      2200       2690          0.024711          0.029143          0.035508          0.043807          0.053281          0.044667
      2210       1820          0.021987          0.025818          0.031339          0.038766          0.047377          0.026836
      2230        930          0.017056          0.020909          0.026761          0.034989          0.044627          0.023248
      2240       1370          0.022357          0.026177          0.031866          0.039521          0.048403          0.026666
      2250       2030          0.023735          0.027810          0.033700          0.041685          0.051011          0.029259
      2260        700          0.020363          0.024957          0.031946          0.041377          0.052598          0.027630
      2280       1600          0.023755          0.027834          0.033726          0.041665          0.051030          0.028622
      2280       2250          0.027227          0.031772          0.038358          0.047138          0.057174          0.038876
      2290        480          0.032206          0.039206          0.049587          0.063458          0.079485          0.042589
      2290       1150          0.019862          0.024113          0.030439          0.038858          0.048660          0.025662
      2300       2480          0.029064          0.034154          0.041264          0.050644          0.061145          0.049435
      2330        930          0.019086          0.023391          0.029939          0.039147          0.049928          0.026056
      2330       1810          0.025905          0.030227          0.036490          0.045608          0.055774          0.031416
      2330       2690          0.029703          0.035028          0.042679          0.052654          0.064043          0.053641
      2340       1380          0.025644          0.030178          0.036700          0.045396          0.055552          0.030792
      2360       2040          0.027188          0.031833          0.038755          0.047939          0.058663          0.033543
      2370        700          0.024230          0.029543          0.037657          0.048776          0.061755          0.032486
      2390        480          0.038108          0.046269          0.058403          0.074922          0.093665          0.050227
      2390       1150          0.022641          0.027485          0.034697          0.044401          0.055615          0.029208
      2390       1600          0.027273          0.031928          0.038871          0.048020          0.058664          0.032871
      2400       2250          0.032117          0.037553          0.045420          0.055818          0.067702          0.045565
      2430       2470          0.034613          0.040765          0.049338          0.060551          0.073206          0.059236
      2440        920          0.022637          0.027751          0.035518          0.046440          0.059232          0.030980
      2440       1810          0.029399          0.034523          0.041908          0.051772          0.063409          0.035925
      2450       1370          0.028938          0.033955          0.041412          0.051362          0.062582          0.034598
      2450       2690          0.034999          0.041278          0.050289          0.062045          0.075463          0.063238
      2480       2030          0.031654          0.037165          0.045116          0.055807          0.068293          0.039023
      2490        480          0.044863          0.054472          0.068756          0.087776          0.109681          0.059135
      2500       1150          0.026402          0.031970          0.040274          0.051539          0.064557          0.033967
      2500       1600          0.031892          0.037372          0.045281          0.056015          0.068368          0.038272
      2520       2250          0.037286          0.043598          0.052734          0.064805          0.078602          0.052800
      2540        930          0.025798          0.031621          0.040480          0.052922          0.067248          0.035162
      2550       1810          0.034276          0.040249          0.048859          0.060360          0.073831          0.041646
      2550       2470          0.040247          0.047298          0.057141          0.070130          0.084901          0.068912
      2560       1370          0.033535          0.039466          0.047995          0.059446          0.072683          0.040089
      2570        700          0.032952          0.040323          0.051208          0.066170          0.083274          0.043958
      2590        480          0.051900          0.062962          0.079176          0.101078          0.126304          0.068412
      2590       2040          0.036564          0.042935          0.052118          0.064470          0.078895          0.044831
      2600       1150          0.030148          0.036510          0.045987          0.058711          0.073523          0.038821
      2610       1590          0.036344          0.042679          0.051807          0.063413          0.078257          0.043735
      2630       2250          0.042865          0.050123          0.060621          0.074398          0.090312          0.060385
      2640        930          0.029384          0.036018          0.046102          0.059994          0.076541          0.039969
      2660       1810          0.038929          0.045651          0.055053          0.068544          0.083731          0.047345
      2670        700          0.037883          0.046237          0.058595          0.075353          0.094617          0.050362
      2670       1370          0.038353          0.045002          0.054885          0.067983          0.082693          0.045969
      2690        480          0.063754          0.077483          0.097260          0.124164          0.154479          0.084497
      2710       1150          0.034761          0.042102          0.053035          0.067703          0.084598          0.044730
      2710       2030          0.042542          0.049846          0.060399          0.074715          0.091429          0.052195
      2720       1590          0.041367          0.048473          0.058730          0.072651          0.088790          0.049625
      2770        700          0.044094          0.053816          0.068208          0.087499          0.109851          0.058673
      2770       1370          0.043248          0.050895          0.061896          0.076666          0.093735          0.051881
      2770       1810          0.044161          0.051856          0.062947          0.077865          0.095288          0.053463
      2790        500          0.073474          0.089296          0.112089          0.142395          0.177827          0.096772
      2810       1150          0.039250          0.047530          0.059871          0.076435          0.095513          0.050460
      2830       1590          0.047237          0.055305          0.067336          0.083292          0.101665          0.057040
      2850        920          0.039473          0.048251          0.061633          0.080211          0.101549          0.053502
      2880        700          0.051298          0.062607          0.079344          0.102035          0.128385          0.068441
      2880       1370          0.049650          0.058137          0.070775          0.087776          0.107503          0.059637
      2920       1140          0.045681          0.055520          0.069693          0.088972          0.110690          0.058764
      2950        920          0.045767          0.055944          0.071461          0.092557          0.117193          0.061921
      2980        700          0.060607          0.073588          0.092886          0.118867          0.148890          0.079895
